tb_top_nn.vcd
$date
	Wed Feb 25 21:52:21 2026
$end
$version
	Icarus Verilog
$end
$timescale
	1ps
$end
$scope module tb_top_nn $end
$var wire 64 ! input_bram_dout [63:0] $end
$var wire 1 " layer_ready $end
$var wire 1 # load_ready $end
$var wire 4 $ top_state [3:0] $end
$var wire 3 % w_phase [2:0] $end
$var wire 64 & weight_bram_dout [63:0] $end
$var wire 1 ' weight_bram_en $end
$var wire 8 ( weight_bram_addr [7:0] $end
$var wire 4 ) valid_out [3:0] $end
$var wire 1 * input_bram_en $end
$var wire 8 + input_bram_addr [7:0] $end
$var wire 1 , done $end
$var wire 1 - busy $end
$var wire 16 . acc_out_3 [15:0] $end
$var wire 16 / acc_out_2 [15:0] $end
$var wire 16 0 acc_out_1 [15:0] $end
$var wire 16 1 acc_out_0 [15:0] $end
$var parameter 32 2 ACC_W $end
$var parameter 32 3 BRAM_W $end
$var parameter 32 4 MEM_DEPTH $end
$var parameter 32 5 N $end
$var parameter 32 6 N_MACS $end
$var parameter 32 7 W $end
$var reg 1 8 busy_d $end
$var reg 1 9 clear_all $end
$var reg 1 : clk $end
$var reg 1 ; done_d $end
$var reg 1 < rst $end
$var reg 1 = start $end
$var reg 4 > top_state_d [3:0] $end
$var reg 3 ? w_phase_d [2:0] $end
$var integer 32 @ ii [31:0] $end
$scope module dut $end
$var wire 1 - busy $end
$var wire 1 9 clear_all $end
$var wire 1 : clk $end
$var wire 64 A input_bram_dout [63:0] $end
$var wire 1 B layer_ready $end
$var wire 1 C load_ready $end
$var wire 1 < rst $end
$var wire 1 = start $end
$var wire 12 D valid_ctrl [11:0] $end
$var wire 64 E weight_bram_dout [63:0] $end
$var wire 1 F weight_mem_busy $end
$var wire 4 G weight_ctrl_raw [3:0] $end
$var wire 4 H weight_ctrl [3:0] $end
$var wire 1 I weight_busy $end
$var wire 1 ' weight_bram_en $end
$var wire 8 J weight_bram_addr [7:0] $end
$var wire 8 K weight_base_addr_tile [7:0] $end
$var wire 16 L w_3 [15:0] $end
$var wire 16 M w_2 [15:0] $end
$var wire 16 N w_1 [15:0] $end
$var wire 16 O w_0 [15:0] $end
$var wire 1 P valid_pipeline_busy $end
$var wire 4 Q valid_out [3:0] $end
$var wire 12 R valid_ctrl_pipeline [11:0] $end
$var wire 12 S valid_ctrl_layering [11:0] $end
$var wire 1 T start_weights $end
$var wire 1 U start_valid_pipeline $end
$var wire 1 V start_layering $end
$var wire 1 W start_input $end
$var wire 1 X next_tile_ready $end
$var wire 1 Y next_tile $end
$var wire 3 Z mode [2:0] $end
$var wire 3 [ load_weights [2:0] $end
$var wire 1 \ load_tile_done $end
$var wire 1 ] layering_busy $end
$var wire 1 ^ layer_sel_tile $end
$var wire 1 * input_bram_en $end
$var wire 8 _ input_bram_addr [7:0] $end
$var wire 8 ` input_base_addr_tile [7:0] $end
$var wire 1 , done $end
$var wire 4 a clear [3:0] $end
$var wire 2 b acc_sel_tile [1:0] $end
$var wire 16 c acc_out_3 [15:0] $end
$var wire 16 d acc_out_2 [15:0] $end
$var wire 16 e acc_out_1 [15:0] $end
$var wire 16 f acc_out_0 [15:0] $end
$var wire 16 g a_in [15:0] $end
$var parameter 32 h ACC_W $end
$var parameter 32 i MEM_DEPTH $end
$var parameter 32 j N $end
$var parameter 32 k N_MACS $end
$var parameter 32 l W $end
$scope module u_input_mem_if $end
$var wire 64 m bram_dout [63:0] $end
$var wire 1 * bram_en $end
$var wire 1 : clk $end
$var wire 1 n load_en $end
$var wire 1 < rst $end
$var wire 8 o row_idx [7:0] $end
$var wire 8 p base_addr [7:0] $end
$var parameter 32 q BRAM_W $end
$var parameter 32 r DATA_W $end
$var parameter 32 s MEM_DEPTH $end
$var parameter 32 t N $end
$var parameter 32 u WORDS_PER_BRAM $end
$var reg 16 v a_out [15:0] $end
$var reg 8 w bram_addr [7:0] $end
$var reg 2 x in_idx [1:0] $end
$var reg 64 y row_buf [63:0] $end
$var reg 2 z slot_idx [1:0] $end
$var reg 2 { word_idx [1:0] $end
$upscope $end
$scope module u_layering_pipeline_ctrl $end
$var wire 1 : clk $end
$var wire 1 B layer_ready $end
$var wire 1 < rst $end
$var wire 1 V start $end
$var parameter 4 | IDLE $end
$var parameter 4 } S_LOAD0 $end
$var parameter 4 ~ S_SWAP0 $end
$var parameter 4 !" S_WAIT $end
$var reg 1 ] busy $end
$var reg 4 "" next_state [3:0] $end
$var reg 4 #" state [3:0] $end
$var reg 12 $" valid_ctrl [11:0] $end
$upscope $end
$scope module u_mac_array $end
$var wire 16 %" a_in [15:0] $end
$var wire 3 &" acc_sel [2:0] $end
$var wire 4 '" clear [3:0] $end
$var wire 1 : clk $end
$var wire 1 < rst $end
$var wire 12 (" valid_ctrl [11:0] $end
$var wire 4 )" valid_weight_in [3:0] $end
$var wire 16 *" w_3 [15:0] $end
$var wire 16 +" w_2 [15:0] $end
$var wire 16 ," w_1 [15:0] $end
$var wire 16 -" w_0 [15:0] $end
$var wire 4 ." valid_out [3:0] $end
$var wire 3 /" valid_ctrl_3 [2:0] $end
$var wire 3 0" valid_ctrl_2 [2:0] $end
$var wire 3 1" valid_ctrl_1 [2:0] $end
$var wire 3 2" valid_ctrl_0 [2:0] $end
$var wire 16 3" acc_out_3 [15:0] $end
$var wire 16 4" acc_out_2 [15:0] $end
$var wire 16 5" acc_out_1 [15:0] $end
$var wire 16 6" acc_out_0 [15:0] $end
$var wire 16 7" a_out_3_2 [15:0] $end
$var wire 16 8" a_out_2_3 [15:0] $end
$var wire 16 9" a_out_1_0 [15:0] $end
$var wire 16 :" a_out_0_1_1 [15:0] $end
$var wire 16 ;" a_out_0_1 [15:0] $end
$var parameter 32 <" ACC_W $end
$var parameter 32 =" N_MACS $end
$var parameter 32 >" W $end
$scope module mac_0 $end
$var wire 16 ?" a_in_0 [15:0] $end
$var wire 3 @" acc_sel [2:0] $end
$var wire 1 A" clear $end
$var wire 1 : clk $end
$var wire 1 B" do_mac $end
$var wire 1 < rst $end
$var wire 3 C" valid_ctrl [2:0] $end
$var wire 1 D" weight_valid_in $end
$var wire 16 E" weight [15:0] $end
$var wire 1 F" valid_in_2 $end
$var wire 1 G" valid_in_1 $end
$var wire 1 H" valid_in_0 $end
$var wire 16 I" a_in_2 [15:0] $end
$var wire 16 J" a_in_1 [15:0] $end
$var parameter 32 K" ACC_W $end
$var parameter 32 L" NUM_ACC $end
$var parameter 32 M" W $end
$var reg 16 N" a_out_0 [15:0] $end
$var reg 16 O" a_out_1 [15:0] $end
$var reg 16 P" a_out_2 [15:0] $end
$var reg 16 Q" acc_out [15:0] $end
$var reg 16 R" mul_in [15:0] $end
$var reg 1 S" valid_out $end
$var reg 16 T" weight_in [15:0] $end
$var integer 32 U" i [31:0] $end
$upscope $end
$scope module mac_1 $end
$var wire 16 V" a_in_0 [15:0] $end
$var wire 16 W" a_in_1 [15:0] $end
$var wire 3 X" acc_sel [2:0] $end
$var wire 1 Y" clear $end
$var wire 1 : clk $end
$var wire 1 Z" do_mac $end
$var wire 1 < rst $end
$var wire 3 [" valid_ctrl [2:0] $end
$var wire 1 \" weight_valid_in $end
$var wire 16 ]" weight [15:0] $end
$var wire 1 ^" valid_in_2 $end
$var wire 1 _" valid_in_1 $end
$var wire 1 `" valid_in_0 $end
$var wire 16 a" a_in_2 [15:0] $end
$var parameter 32 b" ACC_W $end
$var parameter 32 c" NUM_ACC $end
$var parameter 32 d" W $end
$var reg 16 e" a_out_0 [15:0] $end
$var reg 16 f" a_out_1 [15:0] $end
$var reg 16 g" a_out_2 [15:0] $end
$var reg 16 h" acc_out [15:0] $end
$var reg 16 i" mul_in [15:0] $end
$var reg 1 j" valid_out $end
$var reg 16 k" weight_in [15:0] $end
$var integer 32 l" i [31:0] $end
$upscope $end
$scope module mac_2 $end
$var wire 16 m" a_in_0 [15:0] $end
$var wire 16 n" a_in_2 [15:0] $end
$var wire 3 o" acc_sel [2:0] $end
$var wire 1 p" clear $end
$var wire 1 : clk $end
$var wire 1 q" do_mac $end
$var wire 1 < rst $end
$var wire 3 r" valid_ctrl [2:0] $end
$var wire 1 s" weight_valid_in $end
$var wire 16 t" weight [15:0] $end
$var wire 1 u" valid_in_2 $end
$var wire 1 v" valid_in_1 $end
$var wire 1 w" valid_in_0 $end
$var wire 16 x" a_in_1 [15:0] $end
$var parameter 32 y" ACC_W $end
$var parameter 32 z" NUM_ACC $end
$var parameter 32 {" W $end
$var reg 16 |" a_out_0 [15:0] $end
$var reg 16 }" a_out_1 [15:0] $end
$var reg 16 ~" a_out_2 [15:0] $end
$var reg 16 !# acc_out [15:0] $end
$var reg 16 "# mul_in [15:0] $end
$var reg 1 ## valid_out $end
$var reg 16 $# weight_in [15:0] $end
$var integer 32 %# i [31:0] $end
$upscope $end
$scope module mac_3 $end
$var wire 16 &# a_in_0 [15:0] $end
$var wire 16 '# a_in_1 [15:0] $end
$var wire 16 (# a_in_2 [15:0] $end
$var wire 3 )# acc_sel [2:0] $end
$var wire 1 *# clear $end
$var wire 1 : clk $end
$var wire 1 +# do_mac $end
$var wire 1 < rst $end
$var wire 3 ,# valid_ctrl [2:0] $end
$var wire 1 -# weight_valid_in $end
$var wire 16 .# weight [15:0] $end
$var wire 1 /# valid_in_2 $end
$var wire 1 0# valid_in_1 $end
$var wire 1 1# valid_in_0 $end
$var parameter 32 2# ACC_W $end
$var parameter 32 3# NUM_ACC $end
$var parameter 32 4# W $end
$var reg 16 5# a_out_0 [15:0] $end
$var reg 16 6# a_out_1 [15:0] $end
$var reg 16 7# a_out_2 [15:0] $end
$var reg 16 8# acc_out [15:0] $end
$var reg 16 9# mul_in [15:0] $end
$var reg 1 :# valid_out $end
$var reg 16 ;# weight_in [15:0] $end
$var integer 32 <# i [31:0] $end
$upscope $end
$upscope $end
$scope module u_tile_ctrl $end
$var wire 1 : clk $end
$var wire 1 < rst $end
$var wire 1 Y next_tile $end
$var parameter 32 =# BRAM_ROWS_PER_COL $end
$var parameter 32 ># BRAM_W $end
$var parameter 32 ?# DATA_W $end
$var parameter 2 @# IDLE $end
$var parameter 2 A# INCR $end
$var parameter 32 B# LAYER2_I_OFFSET $end
$var parameter 32 C# LAYER2_W_OFFSET $end
$var parameter 32 D# MACS_PER_ROW $end
$var parameter 32 E# MEM_DEPTH $end
$var parameter 32 F# N $end
$var parameter 32 G# NUM_TILES $end
$var parameter 2 H# READY $end
$var parameter 32 I# TILE_BRAM_STRIDE $end
$var parameter 32 J# TOTAL_TILES $end
$var parameter 32 K# WORDS_PER_BRAM $end
$var reg 2 L# acc_sel_tile [1:0] $end
$var reg 8 M# input_base_addr [7:0] $end
$var reg 1 ^ layer_sel $end
$var reg 1 \ load_tile_done $end
$var reg 2 N# next_state [1:0] $end
$var reg 1 X next_tile_ready $end
$var reg 2 O# state [1:0] $end
$var reg 2 P# tile_cnt [1:0] $end
$var reg 8 Q# weight_base_addr [7:0] $end
$upscope $end
$scope module u_top_ctrl $end
$var wire 1 : clk $end
$var wire 1 ] layer_ctrl_busy $end
$var wire 1 \ load_tile_done $end
$var wire 1 X next_tile_ready $end
$var wire 1 < rst $end
$var wire 1 = start $end
$var wire 1 P valid_ctrl_busy $end
$var parameter 3 R# MODE_IDLE $end
$var parameter 3 S# MODE_LAYER $end
$var parameter 3 T# MODE_LOAD $end
$var parameter 32 U# N $end
$var parameter 32 V# NUM_TILES $end
$var parameter 4 W# S_DONE $end
$var parameter 4 X# S_IDLE $end
$var parameter 4 Y# S_ISSUE_LAYER $end
$var parameter 4 Z# S_ISSUE_LOAD $end
$var parameter 4 [# S_NEXT_LAY_TILE $end
$var parameter 4 \# S_NEXT_LOAD_TILE $end
$var parameter 4 ]# S_WAIT_LAY_OFF $end
$var parameter 4 ^# S_WAIT_LAY_ON $end
$var parameter 4 _# S_WAIT_LOAD_OFF $end
$var parameter 4 `# S_WAIT_LOAD_ON $end
$var parameter 4 a# S_WAIT_TILE_RDY $end
$var reg 1 , done $end
$var reg 1 b# load_tile_done_lat $end
$var reg 3 c# mode [2:0] $end
$var reg 1 Y next_tile $end
$var reg 1 W start_input $end
$var reg 1 V start_layering $end
$var reg 1 U start_valid_pipeline $end
$var reg 1 T start_weights $end
$var reg 4 d# state [3:0] $end
$upscope $end
$scope module u_valid_pipeline_ctrl $end
$var wire 1 : clk $end
$var wire 1 C load_ready $end
$var wire 1 < rst $end
$var wire 1 U start $end
$var reg 1 e# armed $end
$var reg 1 P busy $end
$var reg 2 f# start_tok [1:0] $end
$var reg 12 g# valid_ctrl [11:0] $end
$var reg 6 h# valid_shift [5:0] $end
$upscope $end
$scope module u_weight_mem_if $end
$var wire 8 i# base_addr [7:0] $end
$var wire 64 j# bram_dout [63:0] $end
$var wire 1 ' bram_en $end
$var wire 1 : clk $end
$var wire 1 ^ layer_sel $end
$var wire 1 < rst $end
$var wire 1 T start $end
$var parameter 32 k# BRAM_ROWS_PER_COL $end
$var parameter 32 l# BRAM_W $end
$var parameter 32 m# DATA_W $end
$var parameter 32 n# MACS_PER_ROW $end
$var parameter 32 o# MEM_DEPTH $end
$var parameter 32 p# N $end
$var parameter 3 q# P_DIAG $end
$var parameter 3 r# P_IDLE $end
$var parameter 3 s# P_LD_COL0 $end
$var parameter 3 t# P_LD_COL1 $end
$var parameter 3 u# P_RD_COL0 $end
$var parameter 3 v# P_RD_COL1 $end
$var parameter 32 w# WORDS_PER_BRAM $end
$var reg 8 x# bram_addr [7:0] $end
$var reg 1 F busy $end
$var reg 1 y# load_ready $end
$var reg 3 z# out_cnt [2:0] $end
$var reg 3 {# phase [2:0] $end
$var reg 1 |# rd_cnt $end
$var reg 16 }# w0 [15:0] $end
$var reg 16 ~# w1 [15:0] $end
$var reg 16 !$ w2 [15:0] $end
$var reg 16 "$ w3 [15:0] $end
$var integer 32 #$ i [31:0] $end
$scope begin latch0 $end
$var integer 32 $$ w [31:0] $end
$upscope $end
$scope begin latch1 $end
$var integer 32 %$ w [31:0] $end
$upscope $end
$upscope $end
$scope module u_weight_pipeline_ctrl $end
$var wire 1 : clk $end
$var wire 3 &$ mode [2:0] $end
$var wire 1 < rst $end
$var wire 1 T start $end
$var parameter 32 '$ HALF_W $end
$var parameter 2 ($ IDLE $end
$var parameter 2 )$ LAYER $end
$var parameter 4 *$ LAYER_MASK $end
$var parameter 2 +$ LOAD $end
$var parameter 4 ,$ LOAD_MASK $end
$var parameter 32 -$ N_MACS $end
$var reg 1 I busy $end
$var reg 1 .$ layer_ready $end
$var reg 3 /$ load [2:0] $end
$var reg 3 0$ load_pulse [2:0] $end
$var reg 1 1$ load_ready $end
$var reg 2 2$ next_state [1:0] $end
$var reg 3 3$ prev_mode [2:0] $end
$var reg 2 4$ state [1:0] $end
$var reg 4 5$ weight_ctrl [3:0] $end
$upscope $end
$upscope $end
$upscope $end
$enddefinitions $end
$comment Show the parameter values. $end
$dumpall
b100 -$
b11 ,$
b1 +$
b1100 *$
b10 )$
b0 ($
b10 '$
b100 w#
b11 v#
b1 u#
b100 t#
b10 s#
b0 r#
b101 q#
b100 p#
b100000000 o#
b10 n#
b10000 m#
b1000000 l#
b1 k#
b1010 a#
b10 `#
b11 _#
b110 ^#
b111 ]#
b100 \#
b1000 [#
b1 Z#
b101 Y#
b0 X#
b1001 W#
b10 V#
b1000 U#
b1 T#
b10 S#
b0 R#
b100 K#
b100 J#
b10 I#
b10 H#
b10 G#
b100 F#
b100000000 E#
b10 D#
b100 C#
b1 B#
b1 A#
b0 @#
b10000 ?#
b1000000 >#
b1 =#
b1000 4#
b1000 3#
b10000 2#
b1000 {"
b1000 z"
b10000 y"
b1000 d"
b1000 c"
b10000 b"
b1000 M"
b1000 L"
b10000 K"
b1000 >"
b100 ="
b10000 <"
b1 !"
b100 ~
b10 }
b0 |
b100 u
b100 t
b100000000 s
b10000 r
b1000000 q
b1000 l
b100 k
b100 j
b100000000 i
b10000 h
b1000 7
b100 6
b100 5
b100000000 4
b1000000 3
b10000 2
$end
#0
$dumpvars
b0 5$
b0 4$
b0 3$
b0 2$
01$
b0 0$
b0 /$
0.$
b0 &$
bx %$
bx $$
b100 #$
b0 "$
b0 !$
b0 ~#
b0 }#
0|#
b0 {#
b0 z#
0y#
b0 x#
b1 j#
b0 i#
bx h#
bx g#
bx f#
xe#
b0 d#
b0 c#
0b#
b0 Q#
b0 P#
b0 O#
b0 N#
b0 M#
b0 L#
bx <#
b0 ;#
x:#
b0 9#
bx 8#
bx 7#
bx 6#
bx 5#
x1#
x0#
x/#
b0 .#
0-#
bx ,#
x+#
0*#
b0 )#
bz (#
bx '#
bx &#
bx %#
b0 $#
x##
b0 "#
bx !#
bx ~"
bx }"
bx |"
bx x"
xw"
xv"
xu"
b0 t"
0s"
bx r"
xq"
0p"
b0 o"
bz n"
bx m"
bx l"
b0 k"
xj"
bx i"
bx h"
bx g"
bx f"
bx e"
bx a"
x`"
x_"
x^"
b0 ]"
1\"
bx ["
xZ"
0Y"
b0 X"
bx W"
bx V"
bx U"
b0 T"
xS"
b0 R"
bx Q"
bx P"
bx O"
bx N"
bx J"
bx I"
xH"
xG"
xF"
b0 E"
1D"
bx C"
xB"
0A"
b0 @"
b0 ?"
bx ;"
bx :"
bx 9"
bx 8"
bx 7"
bx 6"
bx 5"
bx 4"
bx 3"
bx 2"
bx 1"
bx 0"
bx /"
bx ."
b0 -"
b0 ,"
b0 +"
b0 *"
b11 )"
bx ("
b0 '"
b0 &"
b0 %"
bx $"
bx #"
b0 ""
b0 {
b0 z
b0 y
b0 x
b0 w
b0 v
b0 p
b0 o
xn
b100000000000000001100000000000000100000000000000001 m
b0 g
bx f
bx e
bx d
bx c
b0 b
b0 a
b0 `
b0 _
0^
x]
0\
b0 [
b0 Z
0Y
1X
0W
0V
0U
0T
bx S
bx R
bx Q
xP
b0 O
b0 N
b0 M
b0 L
b0 K
b0 J
0I
b11 H
b0 G
0F
b1 E
bx D
0C
zB
b100000000000000001100000000000000100000000000000001 A
b100000000 @
bx ?
bx >
0=
1<
x;
0:
09
x8
bx 1
bx 0
bx /
bx .
x-
0,
b0 +
0*
bx )
b0 (
0'
b1 &
b0 %
b0 $
0#
0"
b100000000000000001100000000000000100000000000000001 !
$end
#5000
0B"
0Z"
0q"
0+#
0n
0H"
0G"
0F"
0`"
0_"
0^"
0w"
0v"
0u"
01#
00#
0/#
b0 2"
b0 C"
b0 1"
b0 ["
b0 0"
b0 r"
b0 /"
b0 ,#
b0 D
b0 ("
b0 R
b0 g#
b0 S
b0 $"
0-
b0 i"
0P
0e#
b0 f#
b0 h#
b0 #"
0]
0S"
b0 1
b0 f
b0 6"
b0 Q"
b0 m"
b0 ;"
b0 N"
b0 V"
0j"
b0 0
b0 e
b0 5"
b0 h"
b0 &#
0##
b0 /
b0 d
b0 4"
b0 J"
b0 !#
bz ~"
b0 )
b0 Q
b0 ."
0:#
b0 .
b0 c
b0 3"
b0 a"
b0 8#
bz 7#
0;
b0 >
b0 ?
b100 #$
b1000 U"
b1000 l"
b1000 %#
b1000 <#
1:
#10000
0:
#15000
08
b0 7"
b0 x"
b0 5#
b0 8"
b0 |"
b0 '#
b0 9"
b0 I"
b0 g"
b0 e"
b0 :"
b0 O"
b0 W"
b100 #$
b1000 <#
b1000 %#
b1000 l"
b1000 U"
1:
#20000
0:
#25000
b100000000000000001100000000000000100000000000000001 y
0X
b0 P"
b0 f"
b0 }"
b0 6#
1*
1'
0<
1:
#30000
0:
#35000
1A"
1Y"
1p"
1*#
b1111 a
b1111 '"
19
1:
#40000
0:
#45000
0A"
0Y"
0p"
0*#
b1000 U"
b1000 l"
b1000 %#
b1000 <#
b0 a
b0 '"
09
1:
#50000
0:
#55000
1:
#60000
0:
#65000
1:
#70000
0:
#75000
1:
#80000
0:
#85000
b1 $
b1 d#
1=
1:
#90000
0:
#95000
b1 2$
b10 $
b10 d#
1U
1W
1T
b1 Z
b1 c#
b1 &$
b1 >
0=
1:
#100000
0:
#105000
xn
1I
x#
xC
11$
b11 G
b11 5$
b1 [
b1 /$
b1 %
b1 {#
1F
b1 3$
b1 0$
b1 4$
0W
0T
0U
b11 f#
b10 >
1:
#110000
0:
#115000
b0 [
b0 /$
x#
xC
11$
1I
b11 G
b11 5$
1-
b11 %
b11 {#
b10000000000000000 &
b10000000000000000 E
b10000000000000000 j#
b1 (
b1 J
b1 x#
b0 0$
b1 ?
1P
b100 $$
1:
#120000
0:
#125000
1n
b101 %
b101 {#
1#
1C
1y#
b11 $
b11 d#
18
b11 ?
b100 %$
1:
#130000
0:
#135000
1B"
b1 R"
1H"
b1 2"
b1 C"
b1 D
b1 ("
b1 T"
1n
b1 R
b1 g#
b1 z
b1 {
b1 g
b1 v
b1 %"
b1 ?"
b1 z#
b1 O
b1 -"
b1 E"
b1 }#
x#
xC
0y#
b101 ?
b11 >
b1 f#
b1 h#
1e#
1:
#140000
0:
#145000
1Z"
b1 i"
1`"
b1 1"
b1 ["
b1001 D
b1001 ("
b0 T"
b10 R"
b1001 R
b1001 g#
b10 z#
b0 O
b0 -"
b0 E"
b0 }#
b10 z
b10 {
b1 x
b10 g
b10 v
b10 %"
b10 ?"
b0 f#
b1001 h#
b1 )
b1 Q
b1 ."
1S"
b1 1
b1 f
b1 6"
b1 Q"
b1 m"
b1 ;"
b1 N"
b1 V"
1:
#150000
0:
#155000
0B"
xn
0H"
b0 2"
b0 C"
b1000 D
b1000 ("
b0 R"
b1 k"
b10 i"
b1000 R
b1000 g#
b11 z
b11 {
b10 x
b11 g
b11 v
b11 %"
b11 ?"
b11 z#
b1 N
b1 ,"
b1 ]"
b1 ~#
b1 8"
b1 |"
b1 '#
1j"
b1 e"
b11 )
b11 Q
b11 ."
1S"
b10 ;"
b10 N"
b10 V"
b1000 h#
1:
#160000
0:
#165000
0Z"
0`"
b0 1"
b0 ["
b0 D
b0 ("
b0 k"
b0 R
b0 g#
b0 i"
b100 z#
b0 N
b0 ,"
b0 ]"
b0 ~#
b0 h#
0S"
b11 ;"
b11 N"
b11 V"
b10 0
b10 e
b10 5"
b10 h"
b10 &#
b10 )
b10 Q
b10 ."
1j"
b10 e"
b1 6#
1:
#170000
0:
#175000
0-
0F
b0 %
b0 {#
b0 z#
b10 7"
b10 x"
b10 5#
b0 )
b0 Q
b0 ."
0j"
b11 e"
0P
1:
#180000
0:
#185000
b100 $
b100 d#
0e#
b10 }"
08
b0 ?
1:
#190000
0:
#195000
b1 N#
b1010 $
b1010 d#
1Y
b100 >
1:
#200000
0:
#205000
b10 N#
b1 O#
0Y
b1010 >
1:
#210000
0:
#215000
b0 N#
b10 O#
b1 P#
1:
#220000
0:
#225000
1X
b0 O#
1:
#230000
0:
#235000
b1 $
b1 d#
0X
1:
#240000
0:
#245000
b10 $
b10 d#
1U
1W
1T
b1 >
1:
#250000
0:
#255000
0W
0T
0U
b1 %
b1 {#
1F
b1 &
b1 E
b1 j#
b0 (
b0 J
b0 x#
b10 >
b11 f#
1:
#260000
0:
#265000
1-
b11 %
b11 {#
b10000000000000000 &
b10000000000000000 E
b10000000000000000 j#
b1 (
b1 J
b1 x#
1P
b1 ?
b100 $$
1:
#270000
0:
#275000
1n
b101 %
b101 {#
1#
1C
1y#
b11 $
b11 d#
b11 ?
18
b100 %$
1:
#280000
0:
#285000
1B"
b100 R"
1H"
b1 2"
b1 C"
b1 D
b1 ("
b1 T"
1n
b1 R
b1 g#
b0 z
b0 {
b11 x
b100 g
b100 v
b100 %"
b100 ?"
b1 z#
b1 O
b1 -"
b1 E"
b1 }#
x#
xC
0y#
b1 f#
b1 h#
1e#
b11 >
b101 ?
1:
#290000
0:
#295000
1Z"
b100 i"
1`"
b1 1"
b1 ["
b1001 D
b1001 ("
b0 T"
b1 R"
b1001 R
b1001 g#
b10 z#
b0 O
b0 -"
b0 E"
b0 }#
b1 z
b1 {
b0 x
b1 g
b1 v
b1 %"
b1 ?"
b1 )
b1 Q
b1 ."
1S"
b101 1
b101 f
b101 6"
b101 Q"
b101 m"
b100 ;"
b100 N"
b100 V"
b0 f#
b1001 h#
1:
#300000
0:
#305000
0B"
xn
0H"
b0 2"
b0 C"
b1000 D
b1000 ("
b0 R"
b1 k"
b1000 R
b1000 g#
b1 i"
b10 z
b10 {
b1 x
b10 g
b10 v
b10 %"
b10 ?"
b11 z#
b1 N
b1 ,"
b1 ]"
b1 ~#
b1000 h#
1S"
b1 ;"
b1 N"
b1 V"
b11 )
b11 Q
b11 ."
1j"
b100 e"
b101 8"
b101 |"
b101 '#
1:
#310000
0:
#315000
0Z"
0`"
b0 1"
b0 ["
b0 D
b0 ("
b0 k"
b0 i"
b0 R
b0 g#
b100 z#
b0 N
b0 ,"
b0 ]"
b0 ~#
b101 6#
b11 0
b11 e
b11 5"
b11 h"
b11 &#
1j"
b1 e"
b10 )
b10 Q
b10 ."
0S"
b10 ;"
b10 N"
b10 V"
b0 h#
1:
#320000
0:
#325000
0-
0F
b0 %
b0 {#
b0 z#
0P
b0 )
b0 Q
b0 ."
0j"
b10 e"
b11 7"
b11 x"
b11 5#
1:
#330000
0:
#335000
b100 $
b100 d#
b0 ?
08
b11 }"
0e#
1:
#340000
0:
#345000
b1 N#
b1010 $
b1010 d#
1Y
b100 >
1:
#350000
0:
#355000
b10 N#
0Y
b1 O#
b1010 >
1:
#360000
0:
#365000
b0 N#
b10 P#
b1 &"
b1 @"
b1 X"
b1 b
b1 L#
b10 K
b10 Q#
b10 i#
b10 O#
1:
#370000
0:
#375000
b0 O#
1X
1:
#380000
0:
#385000
0X
b1 $
b1 d#
1:
#390000
0:
#395000
b10 $
b10 d#
1U
1W
1T
b1 >
1:
#400000
0:
#405000
0W
0T
0U
b1 %
b1 {#
1F
b100000000000000000000000000000000 &
b100000000000000000000000000000000 E
b100000000000000000000000000000000 j#
b10 (
b10 J
b10 x#
b11 f#
b10 >
1:
#410000
0:
#415000
1-
b11 %
b11 {#
b1000000000000000000000000000000000000000000000000 &
b1000000000000000000000000000000000000000000000000 E
b1000000000000000000000000000000000000000000000000 j#
b11 (
b11 J
b11 x#
b1 ?
1P
b100 $$
1:
#420000
0:
#425000
1n
b101 %
b101 {#
1#
1C
1y#
b11 $
b11 d#
18
b11 ?
b100 %$
1:
#430000
0:
#435000
1B"
b11 R"
1H"
b1 2"
b1 C"
b1 D
b1 ("
1n
b1 R
b1 g#
b11 z
b11 {
b10 x
b11 g
b11 v
b11 %"
b11 ?"
b1 z#
x#
xC
0y#
b101 ?
b11 >
b1 f#
b1 h#
1e#
1:
#440000
0:
#445000
1Z"
b11 i"
1`"
b1 1"
b1 ["
b1001 D
b1001 ("
b100 R"
b1001 R
b1001 g#
b10 z#
b0 z
b0 {
b11 x
b100 g
b100 v
b100 %"
b100 ?"
b0 f#
b1001 h#
b1 )
b1 Q
b1 ."
1S"
b0 1
b0 f
b0 6"
b0 Q"
b0 m"
b11 ;"
b11 N"
b11 V"
1:
#450000
0:
#455000
0B"
xn
0H"
b0 2"
b0 C"
b1000 D
b1000 ("
b0 R"
b1 T"
b100 i"
b1000 R
b1000 g#
b1 z
b1 {
b0 x
b1 g
b1 v
b1 %"
b1 ?"
b11 z#
b1 O
b1 -"
b1 E"
b1 }#
b0 8"
b0 |"
b0 '#
1j"
b0 0
b0 e
b0 5"
b0 h"
b0 &#
b11 e"
b11 )
b11 Q
b11 ."
1S"
b100 ;"
b100 N"
b100 V"
b1000 h#
1:
#460000
0:
#465000
0Z"
0`"
b0 1"
b0 ["
b0 D
b0 ("
b0 T"
b0 R
b0 g#
b0 i"
b100 z#
b0 O
b0 -"
b0 E"
b0 }#
b0 h#
0S"
b1 ;"
b1 N"
b1 V"
b10 )
b10 Q
b10 ."
1j"
b100 e"
b0 6#
b0 7"
b0 x"
b0 5#
1:
#470000
0:
#475000
b1 k"
0-
0F
b0 %
b0 {#
b0 z#
b1 N
b1 ,"
b1 ]"
b1 ~#
b0 }"
b0 )
b0 Q
b0 ."
0j"
b1 e"
0P
1:
#480000
0:
#485000
b100 $
b100 d#
0e#
08
b0 ?
1:
#490000
0:
#495000
b1 N#
b1010 $
b1010 d#
1Y
b100 >
1:
#500000
0:
#505000
b10 N#
b1 O#
0Y
b1010 >
1:
#510000
0:
#515000
b0 k"
0D"
0\"
1s"
1-#
b0 N#
b1100 H
b1100 )"
b10 O#
b11 P#
b0 &"
b0 @"
b0 X"
b0 b
b0 L#
b1 `
b1 p
b1 M#
b100 K
b100 Q#
b100 i#
1^
1:
#520000
0:
#525000
b1 +
b1 _
b1 w
1X
b0 O#
1:
#530000
0:
#535000
b1 $
b1 d#
0X
1:
#540000
0:
#545000
b10 $
b10 d#
1U
1W
1T
b1 >
1:
#550000
0:
#555000
0W
0T
0U
b1 %
b1 {#
1F
b1 &
b1 E
b1 j#
b100 (
b100 J
b100 x#
b10 >
b11 f#
1:
#560000
0:
#565000
1-
b11 %
b11 {#
b10000000000000000 &
b10000000000000000 E
b10000000000000000 j#
b101 (
b101 J
b101 x#
1P
b1 ?
b100 $$
1:
#570000
0:
#575000
1n
b101 %
b101 {#
1#
1C
1y#
b11 $
b11 d#
b11 ?
18
b100 %$
1:
#580000
0:
#585000
1B"
b10 R"
1H"
b1 2"
b1 C"
b1 D
b1 ("
b1 $#
1n
b1 R
b1 g#
b10 z
b10 {
b1 x
b10 g
b10 v
b10 %"
b10 ?"
b1 z#
b1 M
b1 +"
b1 t"
b1 !$
b0 N
b0 ,"
b0 ]"
b0 ~#
x#
xC
0y#
b1 f#
b1 h#
1e#
b11 >
b101 ?
1:
#590000
0:
